…
```
## See spec(...) for full column specifications.
```

```r
amniota
```

```
## # A tibble: 21,322 x 36
##    class order family genus species subspecies common_name female_maturity…
##    <chr> <chr> <chr>  <chr> <chr>        <dbl> <chr>                  <dbl>
##  1 Aves  Acci… Accip… Acci… albogu…       -999 Pied Gosha…            -999 
##  2 Aves  Acci… Accip… Acci… badius        -999 Shikra                  363.
##  3 Aves  Acci… Accip… Acci… bicolor       -999 Bicolored …            -999 
##  4 Aves  Acci… Accip… Acci… brachy…       -999 New Britai…            -999 
##  5 Aves  Acci… Accip… Acci… brevip…       -999 Levant Spa…             363.
##  6 Aves  Acci… Accip… Acci… castan…       -999 Chestnut-f…            -999 
##  7 Aves  Acci… Accip… Acci… chilen…       -999 Chilean Ha…            -999 
##  8 Aves  Acci… Accip… Acci… chiono…       -999 White-brea…             548.
##  9 Aves  Acci… Accip… Acci… cirroc…       -999 Collared S…            -999 
## 10 Aves  Acci… Accip… Acci… cooper…       -999 Cooper's H…             730 
## # … with 21,312 more rows, and 28 more variables:
## #   litter_or_clutch_size_n <dbl>, litters_or_clutches_per_y <dbl>,
## #   adult_body_mass_g <dbl>, maximum_longevity_y <dbl>, gestation_d <dbl>,
## #   weaning_d <dbl>, birth_or_hatching_weight_g <dbl>, weaning_weight_g <dbl>,
## #   egg_mass_g <dbl>, incubation_d <dbl>, fledging_age_d <dbl>,
## #   longevity_y <dbl>, male_maturity_d <dbl>,
## #   inter_litter_or_interbirth_interval_y <dbl>, female_body_mass_g <dbl>,
## #   male_body_mass_g <dbl>, no_sex_body_mass_g <dbl>, egg_width_mm <dbl>,
## #   egg_length_mm <dbl>, fledging_mass_g <dbl>, adult_svl_cm <dbl>,
…
```r
amphibio
```

```
## # A tibble: 6,776 x 38
##    id    Order Family Genus Species   Fos   Ter   Aqu   Arb Leaves Flowers Seeds
##    <chr> <chr> <chr>  <chr> <chr>   <dbl> <dbl> <dbl> <dbl>  <dbl>   <dbl> <lgl>
##  1 Anf0… Anura Allop… Allo… Alloph…    NA     1     1     1     NA      NA NA   
##  2 Anf0… Anura Alyti… Alyt… Alytes…    NA     1     1     1     NA      NA NA   
##  3 Anf0… Anura Alyti… Alyt… Alytes…    NA     1     1     1     NA      NA NA   
##  4 Anf0… Anura Alyti… Alyt… Alytes…    NA     1     1     1     NA      NA NA   
##  5 Anf0… Anura Alyti… Alyt… Alytes…    NA     1    NA     1     NA      NA NA   
##  6 Anf0… Anura Alyti… Alyt… Alytes…     1     1     1     1     NA      NA NA   
##  7 Anf0… Anura Alyti… Disc… Discog…     1     1     1    NA     NA      NA NA   
##  8 Anf0… Anura Alyti… Disc… Discog…     1     1     1    NA     NA      NA NA   
##  9 Anf0… Anura Alyti… Disc… Discog…     1     1     1    NA     NA      NA NA   
## 10 Anf0… Anura Alyti… Disc… Discog…     1     1     1    NA     NA      NA NA   
## # … with 6,766 more rows, and 26 more variables: Fruits <dbl>, Arthro <dbl>,
## #   Vert <dbl>, Diu <dbl>, Noc <dbl>, Crepu <dbl>, Wet_warm <dbl>,
## #   Wet_cold <dbl>, Dry_warm <dbl>, Dry_cold <dbl>, Body_mass_g <dbl>,
## #   Age_at_maturity_min_y <dbl>, Age_at_maturity_max_y <dbl>,
## #   Body_size_mm <dbl>, Size_at_maturity_min_mm <dbl>,
## #   Size_at_maturity_max_mm <dbl>, Longevity_max_y <dbl>,
## #   Litter_size_min_n <dbl>, Litter_size_max_n <dbl>,
## #   Reproductive_output_y <dbl>, Offspring_size_min_mm <dbl>,
## #   Offspring_size_max_mm <dbl>, Dir <dbl>, Lar <dbl>, Viv <dbl>, OBS <lgl>
```
…
**2. How many total NAs are in each data set? Do these values make sense? Are NAs represented by any other values?**

**Yes NA can be represented by "-999"**

```r
amniota %>%
  purrr::map_df(~ sum(is.na(.))) %>% 
  pivot_longer(everything(),
    names_to= "variables",
    values_to = "num_nas") %>% 
  arrange(desc(num_nas))
```

```
## # A tibble: 36 x 2
##    variables                 num_nas
##    <chr>                       <int>
##  1 class                           0
##  2 order                           0
##  3 family                          0
##  4 genus                           0
##  5 species                         0
##  6 subspecies                      0
##  7 common_name                     0
##  8 female_maturity_d               0
##  9 litter_or_clutch_size_n         0
## 10 litters_or_clutches_per_y       0
## # … with 26 more rows
```


```r
amphibio %>%
  purrr::map_df(~ sum(is.na(.))) %>% 
  pivot_longer(everything(),
    names_to= "variables",
    values_to = "num_nas") %>% 
  arrange(desc(num_nas))
```

```
## # A tibble: 38 x 2
##    variables num_nas
##    <chr>       <int>
##  1 OBS          6776
##  2 Fruits       6774
##  3 Flowers      6772
##  4 Seeds        6772
##  5 Leaves       6752
##  6 Dry_cold     6735
##  7 Vert         6657
##  8 Wet_cold     6625
##  9 Crepu        6608
## 10 Dry_warm     6572
## # … with 28 more rows
```
…
**4. Use the package `naniar` to produce a summary, including percentages, of missing data in each column for both data sets.**  


```r
naniar::miss_var_summary(amniota2)
```

```
## # A tibble: 36 x 3
##    variable                  n_miss pct_miss
##    <chr>                      <int>    <dbl>
##  1 class                          0        0
##  2 order                          0        0
##  3 family                         0        0
##  4 genus                          0        0
##  5 species                        0        0
##  6 subspecies                     0        0
##  7 common_name                    0        0
##  8 female_maturity_d              0        0
##  9 litter_or_clutch_size_n        0        0
## 10 litters_or_clutches_per_y      0        0
## # … with 26 more rows
```


```r
naniar::miss_var_summary(amphibio)
```

```
## # A tibble: 38 x 3
##    variable n_miss pct_miss
##    <chr>     <int>    <dbl>
##  1 OBS        6776    100  
##  2 Fruits     6774    100. 
##  3 Flowers    6772     99.9
##  4 Seeds      6772     99.9
##  5 Leaves     6752     99.6
##  6 Dry_cold   6735     99.4
##  7 Vert       6657     98.2
##  8 Wet_cold   6625     97.8
##  9 Crepu      6608     97.5
## 10 Dry_warm   6572     97.0
## # … with 28 more rows
```
…
