…
```
## ── Conflicts ────────────────────────────────────────────────────────────────────────────────────────── tidyverse_conflicts() ──
## x dplyr::filter() masks stats::filter()
## x dplyr::lag()    masks stats::lag()
```

## Mammals Sleep
For this assignment, we are going to use built-in data on mammal sleep patterns.  

```r
msleep
```

```
## # A tibble: 83 x 11
##    name  genus vore  order conservation sleep_total sleep_rem sleep_cycle awake
##    <chr> <chr> <chr> <chr> <chr>              <dbl>     <dbl>       <dbl> <dbl>
##  1 Chee… Acin… carni Carn… lc                  12.1      NA        NA      11.9
##  2 Owl … Aotus omni  Prim… <NA>                17         1.8      NA       7  
##  3 Moun… Aplo… herbi Rode… nt                  14.4       2.4      NA       9.6
##  4 Grea… Blar… omni  Sori… lc                  14.9       2.3       0.133   9.1
##  5 Cow   Bos   herbi Arti… domesticated         4         0.7       0.667  20  
##  6 Thre… Brad… herbi Pilo… <NA>                14.4       2.2       0.767   9.6
##  7 Nort… Call… carni Carn… vu                   8.7       1.4       0.383  15.3
##  8 Vesp… Calo… <NA>  Rode… <NA>                 7        NA        NA      17  
##  9 Dog   Canis carni Carn… domesticated        10.1       2.9       0.333  13.9
## 10 Roe … Capr… herbi Arti… lc                   3        NA        NA      21  
## # … with 73 more rows, and 2 more variables: brainwt <dbl>, bodywt <dbl>
```
1. From which publication are these data taken from? Don't do an internet search; show the code that you would use to find out in R.

```r
?msleep
```

2. Put these data into a new object `sleep`. Make sure they are organized as a data frame.  

```r
sleep <- msleep
sleep
```

```
## # A tibble: 83 x 11
##    name  genus vore  order conservation sleep_total sleep_rem sleep_cycle awake
##    <chr> <chr> <chr> <chr> <chr>              <dbl>     <dbl>       <dbl> <dbl>
##  1 Chee… Acin… carni Carn… lc                  12.1      NA        NA      11.9
##  2 Owl … Aotus omni  Prim… <NA>                17         1.8      NA       7  
##  3 Moun… Aplo… herbi Rode… nt                  14.4       2.4      NA       9.6
##  4 Grea… Blar… omni  Sori… lc                  14.9       2.3       0.133   9.1
##  5 Cow   Bos   herbi Arti… domesticated         4         0.7       0.667  20  
##  6 Thre… Brad… herbi Pilo… <NA>                14.4       2.2       0.767   9.6
##  7 Nort… Call… carni Carn… vu                   8.7       1.4       0.383  15.3
##  8 Vesp… Calo… <NA>  Rode… <NA>                 7        NA        NA      17  
##  9 Dog   Canis carni Carn… domesticated        10.1       2.9       0.333  13.9
## 10 Roe … Capr… herbi Arti… lc                   3        NA        NA      21  
## # … with 73 more rows, and 2 more variables: brainwt <dbl>, bodywt <dbl>
```
…
6. Print out the first column of the data frame and then print out the first row.

```r
sleep[,1]
```

```
## # A tibble: 83 x 1
##    name                      
##    <chr>                     
##  1 Cheetah                   
##  2 Owl monkey                
##  3 Mountain beaver           
##  4 Greater short-tailed shrew
##  5 Cow                       
##  6 Three-toed sloth          
##  7 Northern fur seal         
##  8 Vesper mouse              
##  9 Dog                       
## 10 Roe deer                  
## # … with 73 more rows
```
…
```r
small <- filter(sleep, bodywt <= 1)
small
```

```
## # A tibble: 36 x 11
##    name  genus vore  order conservation sleep_total sleep_rem sleep_cycle awake
##    <chr> <chr> <chr> <chr> <chr>              <dbl>     <dbl>       <dbl> <dbl>
##  1 Owl … Aotus omni  Prim… <NA>                17         1.8      NA       7  
##  2 Grea… Blar… omni  Sori… lc                  14.9       2.3       0.133   9.1
##  3 Vesp… Calo… <NA>  Rode… <NA>                 7        NA        NA      17  
##  4 Guin… Cavis herbi Rode… domesticated         9.4       0.8       0.217  14.6
##  5 Chin… Chin… herbi Rode… domesticated        12.5       1.5       0.117  11.5
##  6 Star… Cond… omni  Sori… lc                  10.3       2.2      NA      13.7
##  7 Afri… Cric… omni  Rode… <NA>                 8.3       2        NA      15.7
##  8 Less… Cryp… omni  Sori… lc                   9.1       1.4       0.15   14.9
##  9 Big … Epte… inse… Chir… lc                  19.7       3.9       0.117   4.3
## 10 Euro… Erin… omni  Erin… lc                  10.1       3.5       0.283  13.9
## # … with 26 more rows, and 2 more variables: brainwt <dbl>, bodywt <dbl>
```
…
```
##   bodywt 
## 1747.071
```


```r
small[,11]
```

```
## # A tibble: 36 x 1
##    bodywt
##     <dbl>
##  1  0.48 
##  2  0.019
##  3  0.045
##  4  0.728
##  5  0.42 
##  6  0.06 
##  7  1    
##  8  0.005
##  9  0.023
## 10  0.77 
## # … with 26 more rows
```
…
```
## sleep_total 
##         3.3
```

10. What is the average sleep duration for small mammals as we have defined them?

```r
small[,6]
```

```
## # A tibble: 36 x 1
##    sleep_total
##          <dbl>
##  1        17  
##  2        14.9
##  3         7  
##  4         9.4
##  5        12.5
##  6        10.3
##  7         8.3
##  8         9.1
##  9        19.7
## 10        10.1
## # … with 26 more rows
```
…
